Final Project
…
data <- data %>%
  mutate(yrs_combine = recode(
    yrs_teach,
    "0-1 years" = "0-5 years",
    "2-5 years" = "0-5 years",
    "6-10 years" = "6-10 years",
    "11-15 years" = "11+ years",
    "More than 15 years" = "11+ years",
    .default ="Unknown"  # Change as necessary for unmatched values
  ))

data

# A tibble: 92 × 114
   inclusion current_role          consent_date age   gender race_eth sex_orient
   <chr>     <chr>                 <chr>        <fct> <fct>  <chr>    <chr>     
 1 ""        Classroom Teacher in… 5/1/24       25-34 Female White o… Prefer no…
 2 ""        Classroom Teacher in… 5/1/24       25-34 Female White o… Straight  
 3 ""        Classroom Teacher in… 5/1/24       35-44 Female White o… Straight  
 4 ""        Classroom Teacher in… 5/1/24       25-34 Female White o… Bisexual  
 5 ""        Classroom Teacher in… 5/1/24       45-54 Femal… White o… Straight  
 6 ""        Classroom Teacher in… 5/1/24       35-44 Male,… White o… Straight  
 7 ""        Classroom Teacher in… 5/1/24       55-64 Female White o… Straight  
 8 ""        Classroom Teacher in… 5/1/24       25-34 Female White o… Straight  
 9 ""        Classroom Teacher in… 5/1/24       45-54 Female White o… Straight  
10 ""        Classroom Teacher in… 5/1/24       21-24 Female White o… Straight  
# ℹ 82 more rows
# ℹ 107 more variables: educator_status <chr>, high_lved <chr>,
#   yrs_teach <chr>, current_class <chr>, current_class_other <chr>,
#   teach_stud <chr>, school_type <chr>, school_type_other <chr>,
#   school_loc <chr>, school_level <chr>, school_level_other <chr>,
#   grades_teach <chr>, school_size <chr>, mh_syst <chr>, mh_prac <chr>,
#   mh_prac_other <chr>, pro_1 <chr>, pro_2 <chr>, pro_3 <chr>, pro_4 <chr>, …
…
final_data <- pro_data_recode %>%
  mutate(across(starts_with("mhl"), ~ case_when(.== "Strongly disagree" ~ 1,
                                               .=="Disagree" ~ 2,
                                               .=="Somewhat disagree" ~ 3,
                                               .=="Somewhat agree" ~ 4,
                                               .=="Agree" ~ 5,
                                               .=="Strongly agree" ~ 6,
                                               .== "" ~ NA_real_)))

final_data<- final_data %>%
  mutate(mean_mhl_id = ((mhl_1 + mhl_2 + mhl_3 + mhl_4 + mhl_5 + mhl_6 + mhl_7 + mhl_8 + mhl_9 + mhl_10 + mhl_11 + mhl_11 + mhl_12 + mhl_13 + mhl_14 + mhl_15)/15))

final_data

# A tibble: 92 × 115
   inclusion current_role          consent_date age   gender race_eth sex_orient
   <chr>     <chr>                 <chr>        <fct> <fct>  <chr>    <chr>     
 1 ""        Classroom Teacher in… 5/1/24       25-34 Female White o… Prefer no…
 2 ""        Classroom Teacher in… 5/1/24       25-34 Female White o… Straight  
 3 ""        Classroom Teacher in… 5/1/24       35-44 Female White o… Straight  
 4 ""        Classroom Teacher in… 5/1/24       25-34 Female White o… Bisexual  
 5 ""        Classroom Teacher in… 5/1/24       45-54 Femal… White o… Straight  
 6 ""        Classroom Teacher in… 5/1/24       35-44 Male,… White o… Straight  
 7 ""        Classroom Teacher in… 5/1/24       55-64 Female White o… Straight  
 8 ""        Classroom Teacher in… 5/1/24       25-34 Female White o… Straight  
 9 ""        Classroom Teacher in… 5/1/24       45-54 Female White o… Straight  
10 ""        Classroom Teacher in… 5/1/24       21-24 Female White o… Straight  
# ℹ 82 more rows
# ℹ 108 more variables: educator_status <chr>, high_lved <chr>,
#   yrs_teach <chr>, current_class <chr>, current_class_other <chr>,
#   teach_stud <chr>, school_type <chr>, school_type_other <chr>,
#   school_loc <chr>, school_level <chr>, school_level_other <chr>,
#   grades_teach <chr>, school_size <chr>, mh_syst <chr>, mh_prac <chr>,
#   mh_prac_other <chr>, pro_1 <dbl>, pro_2 <dbl>, pro_3 <dbl>, pro_4 <dbl>, …
…
#Step 2 Compassion Satisfaction

#add scores on 3, 6, 12, 16, 18, 20, 22, 24, 27, 30

final_data <- final_data %>%
  mutate(sum_comp_satis = (pro_3 + pro_6 + pro_12 + pro_16 + pro_18 + pro_20 + pro_22 + pro_24 + pro_27 + pro_30))

# Step 3 Burnout 
#add scores on 1, 4, 8, 10, 15, 17, 19, 21, 26, 29 
final_data

# A tibble: 92 × 116
   inclusion current_role          consent_date age   gender race_eth sex_orient
   <chr>     <chr>                 <chr>        <fct> <fct>  <chr>    <chr>     
 1 ""        Classroom Teacher in… 5/1/24       25-34 Female White o… Prefer no…
 2 ""        Classroom Teacher in… 5/1/24       25-34 Female White o… Straight  
 3 ""        Classroom Teacher in… 5/1/24       35-44 Female White o… Straight  
 4 ""        Classroom Teacher in… 5/1/24       25-34 Female White o… Bisexual  
 5 ""        Classroom Teacher in… 5/1/24       45-54 Femal… White o… Straight  
 6 ""        Classroom Teacher in… 5/1/24       35-44 Male,… White o… Straight  
 7 ""        Classroom Teacher in… 5/1/24       55-64 Female White o… Straight  
 8 ""        Classroom Teacher in… 5/1/24       25-34 Female White o… Straight  
 9 ""        Classroom Teacher in… 5/1/24       45-54 Female White o… Straight  
10 ""        Classroom Teacher in… 5/1/24       21-24 Female White o… Straight  
# ℹ 82 more rows
# ℹ 109 more variables: educator_status <chr>, high_lved <chr>,
#   yrs_teach <chr>, current_class <chr>, current_class_other <chr>,
#   teach_stud <chr>, school_type <chr>, school_type_other <chr>,
#   school_loc <chr>, school_level <chr>, school_level_other <chr>,
#   grades_teach <chr>, school_size <chr>, mh_syst <chr>, mh_prac <chr>,
#   mh_prac_other <chr>, pro_1 <dbl>, pro_2 <dbl>, pro_3 <dbl>, pro_4 <dbl>, …
…
# Step 4 Secondary Traumatic Stress
#add scores on 2, 5, 7, 9, 11, 13, 14, 23, 25, 28 

final_data <- final_data %>%
  mutate(sum_sectrauma = pro_2 + pro_5 + pro_7 + pro_9 + pro_11 + pro_13 + pro_14 + pro_23 + pro_25 + pro_28)

#step 5 frequency table and histogram for compassion

frequency_table <- final_data %>%
  count(sum_comp_satis) %>%
  arrange(desc(n))
frequency_table

# A tibble: 26 × 2
   sum_comp_satis     n
            <dbl> <int>
 1             36    10
 2             39    10
 3             40     9
 4             37     7
 5             38     7
 6             42     5
 7             29     4
 8             35     4
 9             43     4
10             31     3
# ℹ 16 more rows

Show the code

print(frequency_table)

# A tibble: 26 × 2
   sum_comp_satis     n
            <dbl> <int>
 1             36    10
 2             39    10
 3             40     9
 4             37     7
 5             38     7
 6             42     5
 7             29     4
 8             35     4
 9             43     4
10             31     3
# ℹ 16 more rows
…
Show the code

#step 6 frequency table and histogram for burnout

frequency_table_2 <- final_data %>%
  count(sum_burnout) %>%
  arrange(desc(n))
frequency_table_2

# A tibble: 24 × 2
   sum_burnout     n
         <dbl> <int>
 1          29     8
 2          32     8
 3          33     8
 4          34     8
 5          30     7
 6          27     6
 7          28     6
 8          24     5
 9          26     5
10          36     5
# ℹ 14 more rows

Show the code

print(frequency_table_2)

# A tibble: 24 × 2
   sum_burnout     n
         <dbl> <int>
 1          29     8
 2          32     8
 3          33     8
 4          34     8
 5          30     7
 6          27     6
 7          28     6
 8          24     5
 9          26     5
10          36     5
# ℹ 14 more rows
…
Show the code

#step 7 frequency table and histogram for trauma 

frequency_table_3 <- final_data %>%
  count(sum_sectrauma) %>%
  arrange(desc(n))
frequency_table_3

# A tibble: 26 × 2
   sum_sectrauma     n
           <dbl> <int>
 1            19     8
 2            21     7
 3            26     7
 4            23     6
 5            25     6
 6            31     6
 7            27     5
 8            20     4
 9            22     4
10            24     4
# ℹ 16 more rows

Show the code

print(frequency_table_3)

# A tibble: 26 × 2
   sum_sectrauma     n
           <dbl> <int>
 1            19     8
 2            21     7
 3            26     7
 4            23     6
 5            25     6
 6            31     6
 7            27     5
 8            20     4
 9            22     4
10            24     4
# ℹ 16 more rows
…
